Assignment_One/Assignment_one_four/Tracefile.vcd
$date
     Sep 16, 2021       15:35:46
$end

$version
 SystemC 2.3.3-Accellera --- Aug 31 2021 00:43:58
$end

$timescale
     1 ps
$end

$scope module SystemC $end
$var wire    1  aaaaa  Valid       $end
$var wire    1  aaaab  Ready       $end
$var wire    1  aaaac  Reset       $end
$var wire    4  aaaad  Channel_bits [3:0]  $end
$var wire    4  aaaae  hannel_bits [3:0]  $end
$var wire    2  aaaaf  Error_bits [1:0]  $end
$var wire   16  aaaag  Data_bits [15:0]  $end
$var wire    1  aaaah  Clk       $end
$upscope $end
$enddefinitions  $end

$comment
All initial values are dumped below at time 0 sec = 0 timescale units.
$end

$dumpvars
0aaaaa
0aaaab
1aaaac
b0 aaaad
b0 aaaae
b0 aaaaf
b0 aaaag
1aaaah
$end

#500
0aaaah

#1000
1aaaah

#1500
0aaaah

#2000
1aaaah

#2500
0aaaah

#3000
1aaaah

#3500
0aaaah

#4000
1aaaah

#4500
0aaaah

#5000
1aaaah

#5500
0aaaah

#6000
1aaaah

#6500
0aaaah

#7000
1aaaah

#7500
0aaaah

#8000
1aaaah

#8500
0aaaah

#9000
1aaaah

#9500
0aaaah

#10000
1aaaab
0aaaac
1aaaah

#10500
0aaaah

#11000
1aaaaa
b1 aaaae
b1 aaaag
1aaaah

#11500
0aaaah

#12000
b10 aaaag
1aaaah

#12500
0aaaah

#13000
b11 aaaag
1aaaah

#13500
0aaaah

#14000
b100 aaaag
1aaaah

#14500
0aaaah

#15000
b101 aaaag
1aaaah

#15500
0aaaah

#16000
b110 aaaag
1aaaah

#16500
0aaaah

#17000
b111 aaaag
1aaaah

#17500
0aaaah

#18000
b1000 aaaag
1aaaah

#18500
0aaaah

#19000
0aaaab
b1001 aaaag
1aaaah

#19500
0aaaah

#20000
0aaaaa
1aaaah

#20500
0aaaah

#21000
1aaaah

#21500
0aaaah

#22000
1aaaah

#22500
0aaaah

#23000
1aaaah

#23500
0aaaah

#24000
1aaaah

#24500
0aaaah

#25000
1aaaah

#25500
0aaaah

#26000
1aaaah

#26500
0aaaah

#27000
1aaaah

#27500
0aaaah

#28000
1aaaah

#28500
0aaaah

#29000
1aaaah

#29500
0aaaah

#30000
1aaaab
1aaaah

#30500
0aaaah

#31000
1aaaaa
b1010 aaaag
1aaaah

#31500
0aaaah

#32000
b1011 aaaag
1aaaah

#32500
0aaaah

#33000
b1100 aaaag
1aaaah

#33500
0aaaah

#34000
b1101 aaaag
1aaaah

#34500
0aaaah

#35000
b1110 aaaag
1aaaah

#35500
0aaaah

#36000
b1111 aaaag
1aaaah

#36500
0aaaah

#37000
b10000 aaaag
1aaaah

#37500
0aaaah

#38000
b10001 aaaag
1aaaah

#38500
0aaaah

#39000
b10010 aaaag
1aaaah

#39500
0aaaah

#40000
b10011 aaaag
1aaaah

#40500
0aaaah

#41000
b10100 aaaag
1aaaah

#41500
0aaaah

#42000
0aaaab
b10101 aaaag
1aaaah

#42500
0aaaah

#43000
0aaaaa
1aaaah

#43500
0aaaah

#44000
1aaaah

#44500
0aaaah

#45000
1aaaah

#45500
0aaaah

#46000
1aaaah

#46500
0aaaah

#47000
1aaaah

#47500
0aaaah

#48000
1aaaab
1aaaah

#48500
0aaaah

#49000
1aaaaa
b10110 aaaag
1aaaah

#49500
0aaaah

#50000
b10111 aaaag
1aaaah

#50500
0aaaah

#51000
b11000 aaaag
1aaaah

#51500
0aaaah

#52000
b11001 aaaag
1aaaah

#52500
0aaaah

#53000
b11010 aaaag
1aaaah

#53500
0aaaah

#54000
b11011 aaaag
1aaaah

#54500
0aaaah

#55000
b11100 aaaag
1aaaah

#55500
0aaaah

#56000
0aaaab
b11101 aaaag
1aaaah

#56500
0aaaah

#57000
0aaaaa
1aaaah

#57500
0aaaah

#58000
1aaaah

#58500
0aaaah

#59000
1aaaah

#59500
0aaaah

#60000
1aaaab
1aaaah

#60500
0aaaah

#61000
1aaaaa
b11110 aaaag
1aaaah

#61500
0aaaah

#62000
b11111 aaaag
1aaaah

#62500
0aaaah

#63000
b100000 aaaag
1aaaah

#63500
0aaaah

#64000
b100001 aaaag
1aaaah

#64500
0aaaah

#65000
b100010 aaaag
1aaaah

#65500
0aaaah

#66000
b100011 aaaag
1aaaah

#66500
0aaaah

#67000
b100100 aaaag
1aaaah

#67500
0aaaah

#68000
b100101 aaaag
1aaaah

#68500
0aaaah

#69000
b100110 aaaag
1aaaah

#69500
0aaaah

#70000
0aaaab
b100111 aaaag
1aaaah

#70500
0aaaah

#71000
0aaaaa
1aaaah

#71500
0aaaah

#72000
1aaaah

#72500
0aaaah

#73000
1aaaah

#73500
0aaaah

#74000
1aaaah

#74500
0aaaah

#75000
1aaaah

#75500
0aaaah

#76000
1aaaah

#76500
0aaaah

#77000
1aaaah

#77500
0aaaah

#78000
1aaaah

#78500
0aaaah

#79000
1aaaab
1aaaah

#79500
0aaaah

#80000
1aaaaa
b101000 aaaag
1aaaah

#80500
0aaaah

#81000
b101001 aaaag
1aaaah

#81500
0aaaah

#82000
b101010 aaaag
1aaaah

#82500
0aaaah

#83000
b101011 aaaag
1aaaah

#83500
0aaaah

#84000
b101100 aaaag
1aaaah

#84500
0aaaah

#85000
b101101 aaaag
1aaaah

#85500
0aaaah

#86000
b101110 aaaag
1aaaah

#86500
0aaaah

#87000
b101111 aaaag
1aaaah

#87500
0aaaah

#88000
b110000 aaaag
1aaaah

#88500
0aaaah

#89000
b110001 aaaag
1aaaah

#89500
0aaaah

#90000
b110010 aaaag
1aaaah

#90500
0aaaah

#91000
b110011 aaaag
1aaaah

#91500
0aaaah

#92000
0aaaab
b110100 aaaag
1aaaah

#92500
0aaaah

#93000
0aaaaa
1aaaah

#93500
0aaaah

#94000
1aaaah

#94500
0aaaah

#95000
1aaaah

#95500
0aaaah

#96000
1aaaah

#96500
0aaaah

#97000
1aaaah

#97500
0aaaah

#98000
1aaaah

#98500
0aaaah

#99000
1aaaah

#99500
0aaaah

#100000
1aaaah

#100500
0aaaah

#101000
1aaaab
1aaaah

#101500
0aaaah

#102000
1aaaaa
b110101 aaaag
1aaaah

#102500
0aaaah

#103000
b110110 aaaag
1aaaah

#103500
0aaaah

#104000
b110111 aaaag
1aaaah

#104500
0aaaah

#105000
0aaaab
b111000 aaaag
1aaaah

#105500
0aaaah

#106000
0aaaaa
1aaaah

#106500
0aaaah

#107000
1aaaah

#107500
0aaaah

#108000
1aaaah

#108500
0aaaah

#109000
1aaaah

#109500
0aaaah

#110000
1aaaah

#110500
0aaaah

#111000
1aaaah

#111500
0aaaah

#112000
1aaaah

#112500
0aaaah

#113000
1aaaah

#113500
0aaaah

#114000
1aaaab
1aaaah

#114500
0aaaah

#115000
1aaaaa
b111001 aaaag
1aaaah

#115500
0aaaah

#116000
b111010 aaaag
1aaaah

#116500
0aaaah

#117000
b111011 aaaag
1aaaah

#117500
0aaaah

#118000
b111100 aaaag
1aaaah

#118500
0aaaah

#119000
b111101 aaaag
1aaaah

#119500
0aaaah

#120000
b111110 aaaag
1aaaah

#120500
0aaaah

#121000
b111111 aaaag
1aaaah

#121500
0aaaah

#122000
b1000000 aaaag
1aaaah

#122500
0aaaah

#123000
b1000001 aaaag
1aaaah

#123500
0aaaah

#124000
b1000010 aaaag
1aaaah

#124500
0aaaah

#125000
b1000011 aaaag
1aaaah

#125500
0aaaah

#126000
0aaaab
b1000100 aaaag
1aaaah

#126500
0aaaah

#127000
0aaaaa
1aaaah

#127500
0aaaah

#128000
1aaaah

#128500
0aaaah

#129000
1aaaah

#129500
0aaaah

#130000
1aaaah

#130500
0aaaah

#131000
1aaaab
1aaaah

#131500
0aaaah

#132000
1aaaaa
b1000101 aaaag
1aaaah

#132500
0aaaah

#133000
b1000110 aaaag
1aaaah

#133500
0aaaah

#134000
b1000111 aaaag
1aaaah

#134500
0aaaah

#135000
b1001000 aaaag
1aaaah

#135500
0aaaah

#136000
b1001001 aaaag
1aaaah

#136500
0aaaah

#137000
0aaaab
b1001010 aaaag
1aaaah

#137500
0aaaah

#138000
0aaaaa
1aaaah

#138500
0aaaah

#139000
1aaaah

#139500
0aaaah

#140000
1aaaah

#140500
0aaaah

#141000
1aaaah

#141500
0aaaah

#142000
1aaaah

#142500
0aaaah

#143000
1aaaab
1aaaah

#143500
0aaaah

#144000
1aaaaa
b1001011 aaaag
1aaaah

#144500
0aaaah

#145000
b1001100 aaaag
1aaaah

#145500
0aaaah

#146000
b1001101 aaaag
1aaaah

#146500
0aaaah

#147000
b1001110 aaaag
1aaaah

#147500
0aaaah

#148000
0aaaab
b1001111 aaaag
1aaaah

#148500
0aaaah

#149000
0aaaaa
1aaaah

#149500
0aaaah

#150000
1aaaah

#150500
0aaaah

#151000
1aaaah

#151500
0aaaah

#152000
1aaaah

#152500
0aaaah

#153000
1aaaah

#153500
0aaaah

#154000
1aaaah

#154500
0aaaah

#155000
1aaaah

#155500
0aaaah

#156000
1aaaab
1aaaah

#156500
0aaaah

#157000
1aaaaa
b1010000 aaaag
1aaaah

#157500
0aaaah

#158000
b1010001 aaaag
1aaaah

#158500
0aaaah

#159000
b1010010 aaaag
1aaaah

#159500
0aaaah

#160000
b1010011 aaaag
1aaaah

#160500
0aaaah

#161000
b1010100 aaaag
1aaaah

#161500
0aaaah

#162000
0aaaab
b1010101 aaaag
1aaaah

#162500
0aaaah

#163000
0aaaaa
1aaaah

#163500
0aaaah

#164000
1aaaah

#164500
0aaaah

#165000
1aaaah

#165500
0aaaah

#166000
1aaaah

#166500
0aaaah

#167000
1aaaah

#167500
0aaaah

#168000
1aaaah

#168500
0aaaah

#169000
1aaaah

#169500
0aaaah

#170000
1aaaah

#170500
0aaaah

#171000
1aaaab
1aaaah

#171500
0aaaah

#172000
1aaaaa
b1010110 aaaag
1aaaah

#172500
0aaaah

#173000
b1010111 aaaag
1aaaah

#173500
0aaaah

#174000
b1011000 aaaag
1aaaah

#174500
0aaaah

#175000
b1011001 aaaag
1aaaah

#175500
0aaaah

#176000
0aaaab
b1011010 aaaag
1aaaah

#176500
0aaaah

#177000
0aaaaa
1aaaah

#177500
0aaaah

#178000
1aaaah

#178500
0aaaah

#179000
1aaaah

#179500
0aaaah

#180000
1aaaah

#180500
0aaaah

#181000
1aaaah

#181500
0aaaah

#182000
1aaaab
1aaaah

#182500
0aaaah

#183000
1aaaaa
b1011011 aaaag
1aaaah

#183500
0aaaah

#184000
b1011100 aaaag
1aaaah

#184500
0aaaah

#185000
b1011101 aaaag
1aaaah

#185500
0aaaah

#186000
b1011110 aaaag
1aaaah

#186500
0aaaah

#187000
b1011111 aaaag
1aaaah

#187500
0aaaah

#188000
0aaaab
b1100000 aaaag
1aaaah

#188500
0aaaah

#189000
0aaaaa
1aaaah

#189500
0aaaah

#190000
1aaaah

#190500
0aaaah

#191000
1aaaah

#191500
0aaaah

#192000
1aaaah

#192500
0aaaah

#193000
1aaaah

#193500
0aaaah

#194000
1aaaah

#194500
0aaaah

#195000
1aaaah

#195500
0aaaah

#196000
1aaaah

#196500
0aaaah

#197000
1aaaah

#197500
0aaaah

#198000
1aaaah

#198500
0aaaah

#199000
1aaaab
1aaaah

#199500
0aaaah

#200000
1aaaaa
b1100001 aaaag
1aaaah

#200500
0aaaah

#201000
b1100010 aaaag
1aaaah

#201500
0aaaah

#202000
b1100011 aaaag
1aaaah

#202500
0aaaah

#203000
0aaaab
b1100100 aaaag
1aaaah

#203500
0aaaah

#204000
0aaaaa
1aaaah

#204500
0aaaah

#205000
1aaaah

#205500
0aaaah

#206000
1aaaah

#206500
0aaaah

#207000
1aaaah

#207500
0aaaah

#208000
1aaaah

#208500
0aaaah

#209000
1aaaah

#209500
0aaaah

#210000
1aaaah

#210500
0aaaah

#211000
1aaaah

#211500
0aaaah

#212000
1aaaah

#212500
0aaaah

#213000
1aaaab
1aaaah

#213500
0aaaah

#214000
1aaaaa
b1100101 aaaag
1aaaah

#214500
0aaaah

#215000
b1100110 aaaag
1aaaah

#215500
0aaaah

#216000
b1100111 aaaag
1aaaah

#216500
0aaaah

#217000
b1101000 aaaag
1aaaah

#217500
0aaaah

#218000
b1101001 aaaag
1aaaah

#218500
0aaaah

#219000
b1101010 aaaag
1aaaah

#219500
0aaaah

#220000
b1101011 aaaag
1aaaah

#220500
0aaaah

#221000
b1101100 aaaag
1aaaah

#221500
0aaaah

#222000
0aaaab
b1101101 aaaag
1aaaah

#222500
0aaaah

#223000
0aaaaa
1aaaah

#223500
0aaaah

#224000
1aaaah

#224500
0aaaah

#225000
1aaaah

#225500
0aaaah

#226000
1aaaab
1aaaah

#226500
0aaaah

#227000
1aaaaa
b1101110 aaaag
1aaaah

#227500
0aaaah

#228000
b1101111 aaaag
1aaaah

#228500
0aaaah

#229000
b1110000 aaaag
1aaaah

#229500
0aaaah

#230000
b1110001 aaaag
1aaaah

#230500
0aaaah

#231000
b1110010 aaaag
1aaaah

#231500
0aaaah

#232000
b1110011 aaaag
1aaaah

#232500
0aaaah

#233000
b1110100 aaaag
1aaaah

#233500
0aaaah

#234000
b1110101 aaaag
1aaaah

#234500
0aaaah

#235000
b1110110 aaaag
1aaaah

#235500
0aaaah

#236000
b1110111 aaaag
1aaaah

#236500
0aaaah

#237000
b1111000 aaaag
1aaaah

#237500
0aaaah

#238000
b1111001 aaaag
1aaaah

#238500
0aaaah

#239000
0aaaab
b1111010 aaaag
1aaaah

#239500
0aaaah

#240000
0aaaaa
1aaaah

#240500
0aaaah

#241000
1aaaah

#241500
0aaaah

#242000
1aaaah

#242500
0aaaah

#243000
1aaaah

#243500
0aaaah

#244000
1aaaah

#244500
0aaaah

#245000
1aaaah

#245500
0aaaah

#246000
1aaaab
1aaaah

#246500
0aaaah

#247000
1aaaaa
b1111011 aaaag
1aaaah

#247500
0aaaah

#248000
b1111100 aaaag
1aaaah

#248500
0aaaah

#249000
b1111101 aaaag
1aaaah

#249500
0aaaah

#250000
b1111110 aaaag
1aaaah

#250500
0aaaah

#251000
0aaaab
b1111111 aaaag
1aaaah

#251500
0aaaah

#252000
0aaaaa
1aaaah

#252500
0aaaah

#253000
1aaaah

#253500
0aaaah

#254000
1aaaah

#254500
0aaaah

#255000
1aaaah

#255500
0aaaah

#256000
1aaaah

#256500
0aaaah

#257000
1aaaah

#257500
0aaaah

#258000
1aaaah

#258500
0aaaah

#259000
1aaaab
1aaaah

#259500
0aaaah

#260000
1aaaaa
b10000000 aaaag
1aaaah

#260500
0aaaah

#261000
b10000001 aaaag
1aaaah

#261500
0aaaah

#262000
b10000010 aaaag
1aaaah

#262500
0aaaah

#263000
b10000011 aaaag
1aaaah

#263500
0aaaah

#264000
b10000100 aaaag
1aaaah

#264500
0aaaah

#265000
b10000101 aaaag
1aaaah

#265500
0aaaah

#266000
0aaaab
b10000110 aaaag
1aaaah

#266500
0aaaah

#267000
0aaaaa
1aaaah

#267500
0aaaah

#268000
1aaaah

#268500
0aaaah

#269000
1aaaah

#269500
0aaaah

#270000
1aaaah

#270500
0aaaah

#271000
1aaaah

#271500
0aaaah

#272000
1aaaah

#272500
0aaaah

#273000
1aaaah

#273500
0aaaah

#274000
1aaaah

#274500
0aaaah

#275000
1aaaah

#275500
0aaaah

#276000
1aaaah

#276500
0aaaah

#277000
1aaaah

#277500
0aaaah

#278000
1aaaah

#278500
0aaaah

#279000
1aaaab
1aaaah

#279500
0aaaah

#280000
1aaaaa
b10000111 aaaag
1aaaah

#280500
0aaaah

#281000
b10001000 aaaag
1aaaah

#281500
0aaaah

#282000
b10001001 aaaag
1aaaah

#282500
0aaaah

#283000
b10001010 aaaag
1aaaah

#283500
0aaaah

#284000
b10001011 aaaag
1aaaah

#284500
0aaaah

#285000
b10001100 aaaag
1aaaah

#285500
0aaaah

#286000
b10001101 aaaag
1aaaah

#286500
0aaaah

#287000
b10001110 aaaag
1aaaah

#287500
0aaaah

#288000
b10001111 aaaag
1aaaah

#288500
0aaaah

#289000
b10010000 aaaag
1aaaah

#289500
0aaaah

#290000
0aaaab
b10010001 aaaag
1aaaah

#290500
0aaaah

#291000
0aaaaa
1aaaah

#291500
0aaaah

#292000
1aaaah

#292500
0aaaah

#293000
1aaaah

#293500
0aaaah

#294000
1aaaah

#294500
0aaaah

#295000
1aaaah

#295500
0aaaah

#296000
1aaaab
1aaaah

#296500
0aaaah

#297000
1aaaaa
b10010010 aaaag
1aaaah

#297500
0aaaah

#298000
b10010011 aaaag
1aaaah

#298500
0aaaah

#299000
b10010100 aaaag
1aaaah

#299500
0aaaah

#300000
b10010101 aaaag
1aaaah

#300500
0aaaah

#301000
0aaaab
b10010110 aaaag
1aaaah

#301500
0aaaah

#302000
0aaaaa
1aaaah

#302500
0aaaah

#303000
1aaaah

#303500
0aaaah

#304000
1aaaah

#304500
0aaaah

#305000
1aaaah

#305500
0aaaah

#306000
1aaaah

#306500
0aaaah

#307000
1aaaah

#307500
0aaaah

#308000
1aaaah

#308500
0aaaah

#309000
1aaaah

#309500
0aaaah

#310000
1aaaah

#310500
0aaaah

#311000
1aaaah

#311500
0aaaah

#312000
1aaaab
1aaaah

#312500
0aaaah

#313000
1aaaaa
b10010111 aaaag
1aaaah

#313500
0aaaah

#314000
b10011000 aaaag
1aaaah

#314500
0aaaah

#315000
b10011001 aaaag
1aaaah

#315500
0aaaah

#316000
b10011010 aaaag
1aaaah

#316500
0aaaah

#317000
b10011011 aaaag
1aaaah

#317500
0aaaah

#318000
b10011100 aaaag
1aaaah

#318500
0aaaah

#319000
b10011101 aaaag
1aaaah

#319500
0aaaah

#320000
b10011110 aaaag
1aaaah

#320500
0aaaah

#321000
b10011111 aaaag
1aaaah

#321500
0aaaah

#322000
b10100000 aaaag
1aaaah

#322500
0aaaah

#323000
b10100001 aaaag
1aaaah

#323500
0aaaah

#324000
b10100010 aaaag
1aaaah

#324500
0aaaah

#325000
0aaaab
b10100011 aaaag
1aaaah

#325500
0aaaah

#326000
0aaaaa
1aaaah

#326500
0aaaah

#327000
1aaaah

#327500
0aaaah

#328000
1aaaah

#328500
0aaaah

#329000
1aaaah

#329500
0aaaah

#330000
1aaaah

#330500
0aaaah

#331000
1aaaab
1aaaah

#331500
0aaaah

#332000
1aaaaa
b10100100 aaaag
1aaaah

#332500
0aaaah

#333000
b10100101 aaaag
1aaaah

#333500
0aaaah

#334000
b10100110 aaaag
1aaaah

#334500
0aaaah

#335000
0aaaab
b10100111 aaaag
1aaaah

#335500
0aaaah

#336000
0aaaaa
1aaaah

#336500
0aaaah

#337000
1aaaah

#337500
0aaaah

#338000
1aaaah

#338500
0aaaah

#339000
1aaaah

#339500
0aaaah

#340000
1aaaah

#340500
0aaaah

#341000
1aaaab
1aaaah

#341500
0aaaah

#342000
1aaaaa
b10101000 aaaag
1aaaah

#342500
0aaaah

#343000
b10101001 aaaag
1aaaah

#343500
0aaaah

#344000
b10101010 aaaag
1aaaah

#344500
0aaaah

#345000
b10101011 aaaag
1aaaah

#345500
0aaaah

#346000
b10101100 aaaag
1aaaah

#346500
0aaaah

#347000
b10101101 aaaag
1aaaah

#347500
0aaaah

#348000
b10101110 aaaag
1aaaah

#348500
0aaaah

#349000
b10101111 aaaag
1aaaah

#349500
0aaaah

#350000
b10110000 aaaag
1aaaah

#350500
0aaaah

#351000
b10110001 aaaag
1aaaah

#351500
0aaaah

#352000
b10110010 aaaag
1aaaah

#352500
0aaaah

#353000
b10110011 aaaag
1aaaah

#353500
0aaaah

#354000
0aaaab
b10110100 aaaag
1aaaah

#354500
0aaaah

#355000
0aaaaa
1aaaah

#355500
0aaaah

#356000
1aaaah

#356500
0aaaah

#357000
1aaaah

#357500
0aaaah

#358000
1aaaah

#358500
0aaaah

#359000
1aaaah

#359500
0aaaah

#360000
1aaaah

#360500
0aaaah

#361000
1aaaab
1aaaah

#361500
0aaaah

#362000
1aaaaa
b10110101 aaaag
1aaaah

#362500
0aaaah

#363000
b10110110 aaaag
1aaaah

#363500
0aaaah

#364000
b10110111 aaaag
1aaaah

#364500
0aaaah

#365000
b10111000 aaaag
1aaaah

#365500
0aaaah

#366000
0aaaab
b10111001 aaaag
1aaaah

#366500
0aaaah

#367000
0aaaaa
1aaaah

#367500
0aaaah

#368000
1aaaah

#368500
0aaaah

#369000
1aaaah

#369500
0aaaah

#370000
1aaaah

#370500
0aaaah

#371000
1aaaah

#371500
0aaaah

#372000
1aaaah

#372500
0aaaah

#373000
1aaaah

#373500
0aaaah

#374000
1aaaah

#374500
0aaaah

#375000
1aaaah

#375500
0aaaah

#376000
1aaaah

#376500
0aaaah

#377000
1aaaab
1aaaah

#377500
0aaaah

#378000
1aaaaa
b10111010 aaaag
1aaaah

#378500
0aaaah

#379000
b10111011 aaaag
1aaaah

#379500
0aaaah

#380000
b10111100 aaaag
1aaaah

#380500
0aaaah

#381000
0aaaab
b10111101 aaaag
1aaaah

#381500
0aaaah

#382000
0aaaaa
1aaaah

#382500
0aaaah

#383000
1aaaah

#383500
0aaaah

#384000
1aaaah

#384500
0aaaah

#385000
1aaaah

#385500
0aaaah

#386000
1aaaah

#386500
0aaaah

#387000
1aaaah

#387500
0aaaah

#388000
1aaaah

#388500
0aaaah

#389000
1aaaah

#389500
0aaaah

#390000
1aaaab
1aaaah

#390500
0aaaah

#391000
1aaaaa
b10111110 aaaag
1aaaah

#391500
0aaaah

#392000
b10111111 aaaag
1aaaah

#392500
0aaaah

#393000
b11000000 aaaag
1aaaah

#393500
0aaaah

#394000
b11000001 aaaag
1aaaah

#394500
0aaaah

#395000
b11000010 aaaag
1aaaah

#395500
0aaaah

#396000
b11000011 aaaag
1aaaah

#396500
0aaaah

#397000
b11000100 aaaag
1aaaah

#397500
0aaaah

#398000
b11000101 aaaag
1aaaah

#398500
0aaaah

#399000
b11000110 aaaag
1aaaah

#399500
0aaaah

#400000
b11000111 aaaag
1aaaah

#400500
0aaaah

#401000
0aaaab
b11001000 aaaag
1aaaah

#401500
0aaaah

#402000
0aaaaa
1aaaah

#402500
0aaaah

#403000
1aaaah

#403500
0aaaah

#404000
1aaaah

#404500
0aaaah

#405000
1aaaah

#405500
0aaaah

#406000
1aaaah

#406500
0aaaah

#407000
1aaaah

#407500
0aaaah

#408000
1aaaah

#408500
0aaaah

#409000
1aaaah

#409500
0aaaah

#410000
1aaaah

#410500
0aaaah

#411000
1aaaab
1aaaah

#411500
0aaaah

#412000
1aaaaa
b11001001 aaaag
1aaaah

#412500
0aaaah

#413000
b11001010 aaaag
1aaaah

#413500
0aaaah

#414000
b11001011 aaaag
1aaaah

#414500
0aaaah

#415000
b11001100 aaaag
1aaaah

#415500
0aaaah

#416000
b11001101 aaaag
1aaaah

#416500
0aaaah

#417000
b11001110 aaaag
1aaaah

#417500
0aaaah

#418000
b11001111 aaaag
1aaaah

#418500
0aaaah

#419000
0aaaab
b11010000 aaaag
1aaaah

#419500
0aaaah

#420000
0aaaaa
1aaaah

#420500
0aaaah

#421000
1aaaah

#421500
0aaaah

#422000
1aaaah

#422500
0aaaah

#423000
1aaaah

#423500
0aaaah

#424000
1aaaah

#424500
0aaaah

#425000
1aaaah

#425500
0aaaah

#426000
1aaaah

#426500
0aaaah

#427000
1aaaab
1aaaah

#427500
0aaaah

#428000
1aaaaa
b11010001 aaaag
1aaaah

#428500
0aaaah

#429000
b11010010 aaaag
1aaaah

#429500
0aaaah

#430000
b11010011 aaaag
1aaaah

#430500
0aaaah

#431000
b11010100 aaaag
1aaaah

#431500
0aaaah

#432000
b11010101 aaaag
1aaaah

#432500
0aaaah

#433000
b11010110 aaaag
1aaaah

#433500
0aaaah

#434000
b11010111 aaaag
1aaaah

#434500
0aaaah

#435000
b11011000 aaaag
1aaaah

#435500
0aaaah

#436000
b11011001 aaaag
1aaaah

#436500
0aaaah

#437000
b11011010 aaaag
1aaaah

#437500
0aaaah

#438000
0aaaab
b11011011 aaaag
1aaaah

#438500
0aaaah

#439000
0aaaaa
1aaaah

#439500
0aaaah

#440000
1aaaah

#440500
0aaaah

#441000
1aaaah

#441500
0aaaah

#442000
1aaaah

#442500
0aaaah

#443000
1aaaah

#443500
0aaaah

#444000
1aaaah

#444500
0aaaah

#445000
1aaaah

#445500
0aaaah

#446000
1aaaah

#446500
0aaaah

#447000
1aaaah

#447500
0aaaah

#448000
1aaaah

#448500
0aaaah

#449000
1aaaab
1aaaah

#449500
0aaaah

#450000
1aaaaa
b11011100 aaaag
1aaaah

#450500
0aaaah

#451000
b11011101 aaaag
1aaaah

#451500
0aaaah

#452000
b11011110 aaaag
1aaaah

#452500
0aaaah

#453000
b11011111 aaaag
1aaaah

#453500
0aaaah

#454000
b11100000 aaaag
1aaaah

#454500
0aaaah

#455000
0aaaab
b11100001 aaaag
1aaaah

#455500
0aaaah

#456000
0aaaaa
1aaaah

#456500
0aaaah

#457000
1aaaah

#457500
0aaaah

#458000
1aaaah

#458500
0aaaah

#459000
1aaaah

#459500
0aaaah

#460000
1aaaah

#460500
0aaaah

#461000
1aaaah

#461500
0aaaah

#462000
1aaaah

#462500
0aaaah

#463000
1aaaah

#463500
0aaaah

#464000
1aaaah

#464500
0aaaah

#465000
1aaaab
1aaaah

#465500
0aaaah

#466000
1aaaaa
b11100010 aaaag
1aaaah

#466500
0aaaah

#467000
b11100011 aaaag
1aaaah

#467500
0aaaah

#468000
b11100100 aaaag
1aaaah

#468500
0aaaah

#469000
b11100101 aaaag
1aaaah

#469500
0aaaah

#470000
b11100110 aaaag
1aaaah

#470500
0aaaah

#471000
b11100111 aaaag
1aaaah

#471500
0aaaah

#472000
b11101000 aaaag
1aaaah

#472500
0aaaah

#473000
b11101001 aaaag
1aaaah

#473500
0aaaah

#474000
0aaaab
b11101010 aaaag
1aaaah

#474500
0aaaah

#475000
0aaaaa
1aaaah

#475500
0aaaah

#476000
1aaaah

#476500
0aaaah

#477000
1aaaah

#477500
0aaaah

#478000
1aaaah

#478500
0aaaah

#479000
1aaaah

#479500
0aaaah

#480000
1aaaah

#480500
0aaaah

#481000
1aaaah

#481500
0aaaah

#482000
1aaaah

#482500
0aaaah

#483000
1aaaah

#483500
0aaaah

#484000
1aaaah

#484500
0aaaah

#485000
1aaaab
1aaaah

#485500
0aaaah

#486000
1aaaaa
b11101011 aaaag
1aaaah

#486500
0aaaah

#487000
b11101100 aaaag
1aaaah

#487500
0aaaah

#488000
b11101101 aaaag
1aaaah

#488500
0aaaah

#489000
b11101110 aaaag
1aaaah

#489500
0aaaah

#490000
b11101111 aaaag
1aaaah

#490500
0aaaah

#491000
b11110000 aaaag
1aaaah

#491500
0aaaah

#492000
b11110001 aaaag
1aaaah

#492500
0aaaah

#493000
b11110010 aaaag
1aaaah

#493500
0aaaah

#494000
b11110011 aaaag
1aaaah

#494500
0aaaah

#495000
b11110100 aaaag
1aaaah

#495500
0aaaah

#496000
0aaaab
b11110101 aaaag
1aaaah

#496500
0aaaah

#497000
0aaaaa
1aaaah

